epoch,categorical_accuracy,loss,lr,val_1-shot_5-way_acc,val_loss
1,0.07243333333333335,34.651720724105836,0.001,0.23,4.262702970504761
2,0.07013333333333334,4.818736114501953,0.001,0.224,2.657134710550308
3,0.07396666666666667,3.7561290860176086,0.001,0.252,2.1292433750629427
4,0.0743333333333333,3.421053640842438,0.001,0.25,1.9390058720111847
5,0.07509999999999999,3.297008020877838,0.001,0.248,1.8602917873859406
6,0.08066666666666666,3.1919003677368165,0.001,0.244,1.8252138316631317
7,0.083,3.1328901195526124,0.001,0.252,1.7219077515602113
8,0.08596666666666666,3.079108867645264,0.001,0.27,1.7381535160541535
9,0.08889999999999997,3.046957175731659,0.001,0.252,1.7065677851438523
10,0.08889999999999997,3.0187588834762575,0.001,0.25,1.6816135728359223
11,0.09383333333333335,3.0290054512023925,0.001,0.278,1.6599267834424973
12,0.09703333333333336,2.989585301876068,0.001,0.29,1.6557699251174927
13,0.09770000000000004,2.971490032672882,0.001,0.256,1.6414399421215058
14,0.10149999999999997,2.967175884246826,0.001,0.312,1.6324704223871231
15,0.10286666666666669,2.956183969974518,0.001,0.286,1.656279158592224
16,0.10533333333333335,2.942939019203186,0.001,0.286,1.614984405040741
17,0.10416666666666669,2.9435690903663634,0.001,0.308,1.5776934653520585
18,0.11526666666666667,2.9116588830947876,0.001,0.334,1.5963551700115204
19,0.1183333333333333,2.904770243167877,0.001,0.284,1.6113105618953705
20,0.1196666666666667,2.8952316737174986,0.001,0.312,1.5771049666404724
21,0.12323333333333335,2.8762462067604067,0.001,0.294,1.5648530054092407
22,0.12423333333333336,2.8725200200080874,0.001,0.35,1.5585524010658265
23,0.12946666666666665,2.868273138999939,0.001,0.32,1.5906585955619812
24,0.13153333333333334,2.863459506034851,0.001,0.336,1.6011881113052369
25,0.14123333333333324,2.82676043510437,0.001,0.348,1.5606513017416
26,0.14046666666666666,2.833019690513611,0.001,0.354,1.523291010260582
27,0.139,2.81700044631958,0.001,0.378,1.5224717181921006
28,0.14606666666666668,2.806048288345337,0.001,0.332,1.5771465158462525
29,0.14813333333333337,2.7971341681480406,0.001,0.352,1.5547744220495223
30,0.14626666666666668,2.7935028433799745,0.001,0.372,1.4897280526161194
31,0.15693333333333334,2.771121506690979,0.001,0.34,1.5816670918464661
32,0.15173333333333336,2.7768232893943785,0.001,0.354,1.5434685033559798
33,0.15433333333333332,2.7644795322418214,0.001,0.358,1.5096174931526185
34,0.16083333333333333,2.756166479587555,0.001,0.38,1.4743993842601777
35,0.16446666666666673,2.7401893758773803,0.001,0.386,1.4944418001174926
36,0.16943333333333335,2.73303115606308,0.001,0.354,1.5322293466329575
37,0.16696666666666668,2.7272612500190734,0.001,0.37,1.4915782117843628
38,0.1675666666666666,2.7149689602851867,0.001,0.398,1.4766993552446366
39,0.17099999999999993,2.7190719079971313,0.001,0.364,1.5039198595285415
40,0.17739999999999997,2.68556170463562,0.0005,0.388,1.4500176000595093
41,0.17933333333333323,2.6778146195411683,0.0005,0.376,1.5104194152355195
42,0.18246666666666667,2.678716299533844,0.0005,0.406,1.4786376696825028
43,0.18609999999999993,2.664056601524353,0.0005,0.4,1.5292129218578339
44,0.1820333333333334,2.6656847047805785,0.0005,0.388,1.523483830690384
45,0.18189999999999998,2.65968181848526,0.0005,0.392,1.4753487819433213
46,0.18216666666666675,2.676354682445526,0.0005,0.376,1.5082766062021256
47,0.18896666666666662,2.644078073501587,0.0005,0.386,1.4773807203769684
48,0.1879666666666666,2.6469835901260375,0.0005,0.386,1.4935009455680848
49,0.18379999999999988,2.65312869310379,0.0005,0.41,1.4670379436016083
50,0.18950000000000006,2.6245421171188354,0.0005,0.422,1.4007855105400084
51,0.19286666666666671,2.6400280737876893,0.0005,0.398,1.4470178389549255
52,0.1867,2.6698620820045473,0.0005,0.398,1.5571477103233338
53,0.19046666666666665,2.6350710344314576,0.0005,0.392,1.4979136419296264
54,0.19390000000000002,2.613987240791321,0.0005,0.438,1.4470084327459336
55,0.19553333333333334,2.6276244521141052,0.0005,0.396,1.5046935820579528
56,0.18886666666666665,2.6441474056243894,0.0005,0.414,1.4352155482769013
57,0.19383333333333325,2.630360953807831,0.0005,0.428,1.4490530386567115
58,0.19083333333333338,2.6256824064254762,0.0005,0.418,1.4770848309993745
59,0.1984666666666668,2.6173859167099,0.0005,0.428,1.4389426964521408
60,0.20263333333333336,2.5922989320755003,0.0005,0.396,1.5095054745674132
61,0.20469999999999997,2.604554033279419,0.0005,0.396,1.4247341695427895
62,0.19753333333333323,2.621246237754822,0.0005,0.41,1.4422470450401306
63,0.2040666666666667,2.5863624691963194,0.0005,0.414,1.4787414252758027
64,0.20596666666666663,2.5897099947929383,0.0005,0.376,1.4817100757360457
65,0.1985333333333333,2.617323899269104,0.0005,0.39,1.5148896592855454
66,0.20836666666666667,2.574284794330597,0.0005,0.428,1.426756528019905
67,0.2112333333333334,2.5669121170043945,0.0005,0.384,1.476124209165573
68,0.2053999999999999,2.5923305988311767,0.0005,0.36,1.4858421468734742
69,0.20566666666666666,2.5951958751678466,0.0005,0.424,1.4269401496648788
70,0.20446666666666677,2.5932413935661316,0.0005,0.392,1.5040975576639175
71,0.21506666666666674,2.554571886062622,0.0005,0.386,1.505718001127243
72,0.20489999999999992,2.589450616836548,0.0005,0.42,1.3940966957807541
73,0.20729999999999996,2.5873245334625246,0.0005,0.408,1.452921956181526
74,0.2082666666666668,2.5630194187164306,0.0005,0.406,1.441431468129158
75,0.21523333333333336,2.5572800850868225,0.0005,0.382,1.4668850898742676
76,0.21726666666666666,2.5480921697616576,0.0005,0.398,1.4661638832092285
77,0.2182,2.5484506106376648,0.0005,0.392,1.4151085388660432
78,0.21106666666666662,2.5733114004135134,0.0005,0.416,1.4118554800748826
79,0.21236666666666668,2.5616665267944336,0.0005,0.438,1.4540696173906327
80,0.2182333333333333,2.528367667198181,0.00025,0.398,1.4543444353342057
