epoch,categorical_accuracy,loss,lr,val_1-shot_5-way_acc,val_loss
1,0.09516666666666666,59.48116499900818,0.001,0.256,8.34048005104065
2,0.09393333333333334,6.18122650384903,0.001,0.294,4.2496628975868225
3,0.09649999999999997,4.043612325191498,0.001,0.312,2.5936813282966615
4,0.10063333333333332,4.045905306339264,0.001,0.284,2.3098202431201935
5,0.10216666666666663,3.3249349093437193,0.001,0.278,2.2108047103881834
6,0.10403333333333334,3.1551606369018557,0.001,0.328,2.064825178384781
7,0.10943333333333337,3.2170521783828736,0.001,0.31,2.1016237258911135
8,0.11090000000000001,3.3443271136283874,0.001,0.314,2.2515874338150024
9,0.11683333333333333,3.126303849220276,0.001,0.326,2.015604590177536
10,0.12009999999999998,3.0935099649429323,0.001,0.306,2.0640568530559538
11,0.11533333333333332,3.0926181793212892,0.001,0.312,2.0178634214401243
12,0.12380000000000002,3.0838211226463317,0.001,0.328,2.1474251592159272
13,0.12353333333333331,3.1196936774253845,0.001,0.32,2.1140454030036926
14,0.12303333333333326,3.051558554172516,0.001,0.294,2.0548461270332337
15,0.12236666666666668,3.0847005224227906,0.001,0.332,2.1253827142715456
16,0.12533333333333332,3.1172624683380126,0.001,0.344,2.001402198076248
17,0.12703333333333333,3.039232246875763,0.001,0.318,1.9896368825435637
18,0.13689999999999997,3.0114531302452088,0.001,0.354,1.9939789712429046
19,0.13433333333333336,3.013390607833862,0.001,0.356,2.0180682384967805
20,0.1274,3.0515036296844484,0.001,0.332,2.0554459178447724
21,0.1323333333333333,3.0385291314125062,0.001,0.318,2.0731792092323302
22,0.13723333333333337,3.0061561274528503,0.001,0.322,2.004598710536957
23,0.13806666666666664,2.9925492453575133,0.001,0.326,2.0580177402496336
24,0.1356333333333333,2.996936972141266,0.001,0.306,2.02629927277565
25,0.12989999999999996,2.997039158344269,0.001,0.32,2.001275475025177
26,0.1425333333333333,2.9883319473266603,0.001,0.302,2.045289145708084
27,0.14409999999999992,2.964830300807953,0.001,0.322,2.0116036593914033
28,0.13846666666666663,2.964365441799164,0.001,0.384,1.9442321622371674
29,0.1489666666666667,2.9437294507026674,0.001,0.314,2.003908449411392
30,0.1515333333333333,2.9408594083786013,0.001,0.362,2.045158759355545
31,0.1550333333333333,2.927385034561157,0.001,0.37,1.9381573331356048
32,0.14936666666666665,2.936004927158356,0.001,0.348,1.959972083568573
33,0.1543,2.9465214800834656,0.001,0.368,1.9977207231521605
34,0.1537666666666666,2.9284805846214295,0.001,0.334,1.9626818883419037
35,0.15609999999999996,2.9285477709770205,0.001,0.332,1.9799142360687256
36,0.15620000000000003,2.9148672246932983,0.001,0.356,1.9977008366584779
37,0.1587,2.900055823326111,0.001,0.412,1.9240248274803162
38,0.16826666666666668,2.900241484642029,0.001,0.366,1.9689381313323975
39,0.1649333333333334,2.8869965434074403,0.001,0.326,1.9619417679309845
40,0.17486666666666667,2.855803120136261,0.0005,0.394,1.9163557624816894
41,0.1708666666666667,2.8487955021858213,0.0005,0.37,1.9377195084095
42,0.16716666666666666,2.8517034316062926,0.0005,0.366,1.968113099336624
43,0.18276666666666674,2.8304616355895997,0.0005,0.344,1.9670736384391785
44,0.17553333333333324,2.837554202079773,0.0005,0.38,1.9496358251571655
45,0.18176666666666677,2.8088878750801087,0.0005,0.4,1.8548842394351959
46,0.17416666666666664,2.8360509514808654,0.0005,0.342,1.9397351253032684
47,0.18120000000000006,2.830137996673584,0.0005,0.366,1.9776501905918122
48,0.18020000000000003,2.8184520602226257,0.0005,0.364,1.9959465515613557
49,0.18433333333333335,2.813640263080597,0.0005,0.37,2.0292794001102448
50,0.18059999999999998,2.8236616158485415,0.0005,0.376,1.8762371492385865
51,0.1761333333333334,2.8308214116096497,0.0005,0.436,1.8643113481998443
52,0.18680000000000002,2.7899464559555054,0.0005,0.368,2.015289340019226
53,0.18316666666666667,2.804950041770935,0.0005,0.408,1.904250022172928
54,0.18606666666666669,2.8098926949501037,0.0005,0.404,1.8660661685466766
55,0.1832333333333333,2.824324629306793,0.0005,0.386,1.9143776822090148
56,0.1906333333333333,2.7908926653862,0.0005,0.368,1.9779152929782868
57,0.19096666666666667,2.7979471111297607,0.0005,0.376,1.9288642072677613
58,0.17859999999999995,2.833928158283234,0.0005,0.384,1.9195746338367463
59,0.1844000000000001,2.8055279064178467,0.0005,0.368,1.9196327650547027
60,0.19119999999999998,2.77872642993927,0.0005,0.406,1.8394271528720856
61,0.1875666666666667,2.8172595953941344,0.0005,0.402,1.9003281092643738
62,0.19296666666666662,2.774869751930237,0.0005,0.366,1.9225262987613678
63,0.19206666666666675,2.7775261330604555,0.0005,0.364,1.9466761398315429
64,0.19446666666666673,2.790872566699982,0.0005,0.34,1.9674567675590515
65,0.18979999999999989,2.7748276162147523,0.0005,0.4,1.8396931421756744
66,0.1983333333333334,2.7700566458702087,0.0005,0.41,1.8740557205677033
67,0.1954666666666666,2.776320233345032,0.0005,0.386,1.9158329641819
68,0.1975,2.7688838386535646,0.0005,0.396,1.9049188530445098
69,0.19836666666666683,2.782858386039734,0.0005,0.374,1.9008308792114257
70,0.20179999999999995,2.7617597460746763,0.0005,0.392,1.9370347952842712
71,0.20126666666666665,2.74879385471344,0.0005,0.34,1.948448613882065
72,0.19316666666666663,2.7841782093048097,0.0005,0.37,1.9255899596214294
73,0.20129999999999995,2.7617860293388365,0.0005,0.376,1.9318761491775513
74,0.20613333333333345,2.731717846393585,0.0005,0.374,1.9107711541652679
75,0.19933333333333345,2.748691368103027,0.0005,0.404,1.8698310256004333
76,0.20439999999999992,2.73565673828125,0.0005,0.394,1.9112044382095337
77,0.20076666666666662,2.734022753238678,0.0005,0.418,1.9008888912200927
78,0.20823333333333327,2.7379106426239015,0.0005,0.436,1.856790724992752
79,0.20066666666666663,2.752557425498962,0.0005,0.4,1.8858734238147736
80,0.21399999999999988,2.6955614733695983,0.00025,0.392,1.9284652912616729
