epoch,categorical_accuracy,loss,lr,val_1-shot_5-way_acc,val_loss
1,0.07556666666666668,0.11940975673496723,0.001,0.258,0.4306914609670639
2,0.07869999999999999,0.11515074342489243,0.001,0.228,0.42738580763339995
3,0.07326666666666667,0.11281866319477558,0.001,0.24,0.42891081124544145
4,0.07393333333333331,0.11180535838007927,0.001,0.244,0.42259790033102035
5,0.07059999999999998,0.11069628685712814,0.001,0.256,0.4247168177366257
6,0.07319999999999999,0.11086956404149532,0.001,0.242,0.4196799570322037
7,0.07509999999999999,0.11169400490820408,0.001,0.27,0.42117843717336656
8,0.07246666666666667,0.10989593617618083,0.001,0.206,0.4210507971048355
9,0.07309999999999998,0.1098026243597269,0.001,0.226,0.4213762953877449
10,0.07320000000000002,0.10990412473678589,0.001,0.256,0.4208266830444336
11,0.07106666666666667,0.109642333984375,0.001,0.226,0.42067831128835675
12,0.07386666666666666,0.10910816125571728,0.001,0.23,0.42184130400419234
13,0.07000000000000002,0.10985433116555214,0.001,0.226,0.42156698673963544
14,0.07049999999999998,0.11029554098844528,0.001,0.206,0.41896109461784364
15,0.07006666666666667,0.1090325477719307,0.001,0.236,0.4174797734618187
16,0.07359999999999997,0.10842847056686879,0.001,0.228,0.4176893493533134
17,0.07303333333333333,0.10843896642327308,0.001,0.252,0.41765969932079317
18,0.07213333333333337,0.10799209676682948,0.001,0.266,0.4183166080713272
19,0.07096666666666666,0.1078910594433546,0.001,0.224,0.41881764233112334
20,0.06559999999999999,0.10832917459309101,0.001,0.224,0.4190118595957756
21,0.06793333333333335,0.10824308775365353,0.001,0.21,0.41883994996547697
22,0.0686,0.10866034410893917,0.001,0.224,0.4188648051023483
23,0.07143333333333335,0.10762248218059539,0.001,0.222,0.4182752123475075
24,0.06826666666666667,0.10799817733466625,0.001,0.27,0.4176484790444374
25,0.06726666666666667,0.10799366876482963,0.001,0.22,0.41853771328926087
26,0.06856666666666668,0.10756268963217736,0.001,0.236,0.4188425409793854
27,0.06696666666666667,0.10750712104141712,0.001,0.23,0.41839482247829435
28,0.06713333333333335,0.1077705179899931,0.001,0.274,0.4168842995166779
29,0.06643333333333334,0.10718493200838566,0.001,0.224,0.4179158422350884
30,0.06893333333333333,0.10736692018806934,0.001,0.216,0.41886278927326204
31,0.07259999999999996,0.10726510211825371,0.001,0.22,0.4172544902563095
32,0.07253333333333334,0.1074685537815094,0.001,0.268,0.41629194110631945
33,0.06760000000000001,0.10729758948087692,0.001,0.256,0.41723023951053617
34,0.07116666666666664,0.10806702986359597,0.001,0.238,0.41614568352699277
35,0.06786666666666667,0.1069439847767353,0.001,0.234,0.4169162625074387
36,0.06569999999999997,0.10696743391454219,0.001,0.214,0.41631479173898694
37,0.0666666666666667,0.10672711968421936,0.001,0.226,0.41662478059530256
38,0.06683333333333336,0.1069542682915926,0.001,0.212,0.4152312669157982
39,0.06869999999999997,0.10740170799195767,0.001,0.248,0.416214616894722
40,0.068,0.1069345736503601,0.0005,0.198,0.41462770581245423
41,0.0662,0.10623594254255295,0.0005,0.23,0.41649852722883224
42,0.0662,0.10705124795436859,0.0005,0.22,0.416429808139801
43,0.06866666666666667,0.10635048918426036,0.0005,0.24,0.41466124683618544
44,0.06483333333333331,0.1068974793702364,0.0005,0.222,0.4148275664448738
45,0.06439999999999997,0.10616288542747497,0.0005,0.218,0.415580173432827
46,0.06676666666666668,0.10602535903453827,0.0005,0.226,0.4148003536462784
47,0.06716666666666665,0.10639857545495034,0.0005,0.212,0.4138184666633606
48,0.06430000000000001,0.10650248877704144,0.0005,0.256,0.4130881533026695
49,0.06706666666666666,0.1064052503556013,0.0005,0.218,0.41369629323482515
50,0.06833333333333333,0.10659104540944099,0.0005,0.236,0.413889245390892
51,0.06470000000000002,0.1062745751440525,0.0005,0.22,0.41506155729293825
52,0.06573333333333331,0.10784616068005562,0.0005,0.206,0.4155543875694275
53,0.06646666666666663,0.105951197296381,0.0005,0.252,0.4135860124230385
54,0.06656666666666666,0.10588714689016342,0.0005,0.212,0.4135210752487183
55,0.0656,0.10610208466649056,0.0005,0.206,0.41672158390283587
56,0.0654,0.10644348122179509,0.0005,0.214,0.4141711276769638
57,0.06493333333333327,0.10639043681323529,0.0005,0.22,0.4138601502776146
58,0.06666666666666668,0.10598984606564045,0.0005,0.228,0.41454643696546556
59,0.06416666666666666,0.10611998587846756,0.0005,0.228,0.41591185808181763
60,0.06613333333333334,0.1064230515062809,0.0005,0.246,0.4159978297352791
61,0.06780000000000001,0.10592988349497318,0.0005,0.218,0.41511881321668626
62,0.0665,0.10674686938524246,0.0005,0.226,0.41490175485610964
63,0.06793333333333335,0.10598916336894035,0.0005,0.214,0.41323931217193605
64,0.06693333333333334,0.10608320437371731,0.0005,0.224,0.4154640677571297
65,0.0656,0.10610929057002068,0.0005,0.218,0.4142215073108673
66,0.06586666666666663,0.1058194436877966,0.0005,0.198,0.41488378673791887
67,0.06326666666666664,0.10619655184447765,0.0005,0.242,0.41343014061450956
68,0.06556666666666666,0.10600192621350288,0.0005,0.24,0.41323703348636626
69,0.06909999999999998,0.10656882397830486,0.0005,0.228,0.41468356251716615
70,0.06600000000000002,0.10599124088883399,0.0005,0.232,0.4135503628849983
71,0.06646666666666665,0.10658666238188744,0.0005,0.22,0.41292874336242674
72,0.06323333333333334,0.10552234239876271,0.0005,0.252,0.41293175786733627
73,0.06793333333333335,0.10578731685876847,0.0005,0.214,0.41466470032930375
74,0.06436666666666664,0.10608098953962326,0.0005,0.232,0.4138746598362923
75,0.06640000000000001,0.10610407896339893,0.0005,0.258,0.41335381448268893
76,0.06416666666666666,0.10598875723779201,0.0005,0.212,0.4165236014127731
77,0.06806666666666664,0.10578957870602608,0.0005,0.236,0.414024421274662
78,0.06503333333333332,0.10599140726029872,0.0005,0.252,0.41382973045110705
79,0.06709999999999999,0.10579277835786342,0.0005,0.23,0.41406793415546417
80,0.0658,0.1059210804849863,0.00025,0.222,0.4135502806305885
