epoch,categorical_accuracy,loss,lr,val_1-shot_5-way_acc,val_loss
1,0.6472,1.403835997581482,0.001,0.94,0.5132978934049607
2,0.8213999999999999,0.6434102240204811,0.001,0.948,0.46706856429576876
3,0.8633,0.49914829403162003,0.001,0.974,0.39744158685207365
4,0.886333333333333,0.41662043005228044,0.001,0.978,0.41887932777404785
5,0.9016333333333334,0.3616523289680481,0.001,0.978,0.35025938376784327
6,0.9068000000000004,0.34650930389761925,0.001,0.978,0.3736932736635208
7,0.9113333333333327,0.32243657678365706,0.001,0.98,0.36309630289673805
8,0.923033333333333,0.28933862507343294,0.001,0.974,0.36521905928850174
9,0.9254666666666672,0.280874508023262,0.001,0.974,0.3667025491595268
10,0.9318000000000004,0.25767940916121007,0.001,0.972,0.3848597587645054
11,0.9310333333333333,0.25959812238812446,0.001,0.982,0.334782585054636
12,0.9353666666666665,0.23907898247241974,0.001,0.976,0.3638338729739189
13,0.9338999999999998,0.23783403135836123,0.001,0.98,0.3285625949501991
14,0.9339333333333333,0.23959312885999678,0.001,0.982,0.3133964976668358
15,0.9371333333333332,0.23343011379241943,0.001,0.99,0.3252314968407154
16,0.9391999999999999,0.22412284918129444,0.001,0.982,0.3308397851884365
17,0.9400000000000002,0.22147877827286722,0.001,0.98,0.3217932748794556
18,0.9427333333333331,0.2153548054397106,0.001,0.988,0.31982577294111253
19,0.9453333333333336,0.2118206688016653,0.001,0.982,0.3219433777034283
20,0.9504666666666668,0.18827720291912556,0.0005,0.988,0.34575552806258203
21,0.9503666666666661,0.18379535093903543,0.0005,0.982,0.3229991784691811
22,0.9533666666666665,0.1750620310381055,0.0005,0.992,0.3073892790079117
23,0.9558999999999997,0.1683546310663223,0.0005,0.978,0.35659777849912644
24,0.9511666666666667,0.1808865638822317,0.0005,0.984,0.3266370517015457
25,0.9550333333333334,0.17012303836643697,0.0005,0.988,0.34084172815084457
26,0.9520666666666671,0.18107551120221616,0.0005,0.986,0.33321294784545896
27,0.9529666666666665,0.17590106777846815,0.0005,0.976,0.3608152948319912
28,0.9539666666666663,0.17710100650787353,0.0005,0.984,0.3166408547759056
29,0.9546666666666666,0.17571391187608243,0.0005,0.98,0.34226208060979846
30,0.9577333333333334,0.16561797805130482,0.0005,0.98,0.3598653507232666
31,0.9541333333333338,0.16491211883723736,0.0005,0.98,0.34684916377067565
32,0.9575333333333329,0.16072060890495776,0.0005,0.978,0.33262219101190565
33,0.9558333333333335,0.16894958294928075,0.0005,0.992,0.29835567370057103
34,0.9554666666666664,0.1641170359402895,0.0005,0.98,0.3557535533607006
35,0.9566000000000002,0.16283433333039285,0.0005,0.982,0.3447605089843273
36,0.9577333333333334,0.1608098889887333,0.0005,0.996,0.29113157764077185
37,0.9582,0.15779140166938305,0.0005,0.978,0.42360588535666466
38,0.9541333333333335,0.1733149392157793,0.0005,0.972,0.3858796201646328
39,0.9576666666666669,0.15851024694740773,0.0005,0.99,0.30943104073405264
40,0.9600666666666672,0.15010137520730496,0.00025,0.972,0.44191934913396835
