epoch,categorical_accuracy,loss,lr,val_1-shot_5-way_acc,val_loss
1,0.608733333333333,1.5801482516527177,0.001,0.942,0.17758819701804895
2,0.7986666666666671,0.6914988228678703,0.001,0.952,0.1721826570786652
3,0.8450000000000002,0.5252271848917007,0.001,0.958,0.11872854461353086
4,0.8747000000000003,0.41686772733926775,0.001,0.966,0.16911992275993043
5,0.8888333333333333,0.37047899767756465,0.001,0.966,0.09764880853737168
6,0.9031,0.32135445341467855,0.001,0.958,0.13610204499196626
7,0.9076333333333335,0.2973136465251446,0.001,0.97,0.12198551577756689
8,0.9183000000000002,0.2666198805719614,0.001,0.98,0.07084401106855111
9,0.9162333333333333,0.27162371680140496,0.001,0.968,0.11310899923319226
10,0.9246000000000003,0.24338523261249065,0.001,0.988,0.03365249768506999
11,0.9247333333333334,0.24829473428428173,0.001,0.972,0.0909921226334454
12,0.9251000000000004,0.2345374507457018,0.001,0.982,0.07009952659651277
13,0.9313999999999997,0.22166402392089368,0.001,0.978,0.06316462017835604
14,0.9365333333333331,0.21243825867772104,0.001,0.984,0.057977980670228815
15,0.9350333333333333,0.19851059518754482,0.001,0.988,0.03740093493019323
16,0.9340333333333326,0.20880430087447166,0.001,0.988,0.04574635205457014
17,0.9394999999999994,0.19649260714650155,0.001,0.98,0.07087740213859718
18,0.9388000000000004,0.19702146954834462,0.001,0.974,0.07202485198341492
19,0.9391666666666668,0.19297151386737824,0.001,0.968,0.09362150871278573
20,0.9409333333333332,0.18803281404078007,0.0005,0.99,0.029188619053678123
21,0.9434000000000003,0.17707215413451194,0.0005,0.986,0.05492011093256945
22,0.9495333333333335,0.15944162379950286,0.0005,0.986,0.04444998143728384
23,0.9472333333333333,0.1639836824685335,0.0005,0.984,0.05461569546304503
24,0.9520666666666666,0.14936240274459123,0.0005,0.984,0.04484451050193929
25,0.9495333333333335,0.15240489579737188,0.0005,0.982,0.03789188572196849
26,0.9518333333333334,0.15216358125209808,0.0005,0.982,0.059098593879268434
27,0.9492999999999996,0.157886523604393,0.0005,0.98,0.042243768234462846
28,0.9486,0.1608497440069914,0.0005,0.988,0.05507356067967052
29,0.9555333333333335,0.13996979530900716,0.0005,0.988,0.038793213388455566
30,0.9518333333333332,0.15009098038077354,0.0005,0.992,0.04591292395376627
31,0.9518999999999997,0.15159100402146578,0.0005,0.982,0.07012615867150374
32,0.951433333333333,0.14446419462561608,0.0005,0.99,0.05393685393712047
33,0.9551666666666668,0.1384851848706603,0.0005,0.986,0.031616609366668665
34,0.9556666666666667,0.1361185959354043,0.0005,0.988,0.06464463302710148
35,0.9541666666666664,0.1365984746068716,0.0005,0.982,0.07966109883155184
36,0.9542999999999998,0.1388699223473668,0.0005,0.982,0.04872769941931296
37,0.9529,0.1445424585789442,0.0005,0.982,0.05550442618768571
38,0.9527999999999999,0.14231288835406303,0.0005,0.976,0.0736889605117176
39,0.9558333333333333,0.14124290071427822,0.0005,0.986,0.049920002276536195
40,0.9574333333333337,0.1242581100948155,0.00025,0.984,0.04678794048602036
