epoch,categorical_accuracy,loss,lr,val_1-shot_5-way_acc,val_loss
1,0.5394333333333335,1.8425365775823592,0.001,0.916,0.2382821478706319
2,0.7704666666666666,0.7929955834150314,0.001,0.958,0.15955004562399153
3,0.8390000000000002,0.5405673617124558,0.001,0.958,0.11752963282844575
4,0.8680666666666665,0.4296493059396744,0.001,0.97,0.10290532651217063
5,0.8849333333333338,0.37759235173463823,0.001,0.974,0.11612861653922664
6,0.8944666666666666,0.34485646039247514,0.001,0.966,0.11391175948729597
7,0.9017000000000003,0.3184368623793125,0.001,0.978,0.08908358155091946
8,0.9115000000000002,0.2791779389977455,0.001,0.986,0.039731278037579185
9,0.9188666666666668,0.25513391718268397,0.001,0.982,0.05848854355875574
10,0.9268333333333335,0.22992473416030407,0.001,0.968,0.10105988889559654
11,0.9281666666666668,0.22919401437044143,0.001,0.98,0.05476880578877136
12,0.9269666666666665,0.2302173963189125,0.001,0.982,0.036682698106596946
13,0.9355333333333333,0.20272006638348103,0.001,0.976,0.0799018182095881
14,0.9363333333333332,0.19596998892724515,0.001,0.978,0.06607309136969888
15,0.9356000000000002,0.19807578139007093,0.001,0.988,0.05290234982831862
16,0.9360666666666664,0.1989073569327593,0.001,0.98,0.05206231859896548
17,0.9406333333333338,0.1890194731205702,0.001,0.976,0.07420423697747651
18,0.9440333333333336,0.1759634120762348,0.001,0.99,0.05478951226619131
19,0.9460666666666669,0.16749409198760987,0.001,0.972,0.07111663212094242
20,0.9464333333333335,0.1668112315610051,0.0005,0.982,0.07265012307689175
21,0.9488333333333336,0.1587553630396724,0.0005,0.97,0.10687125696650128
22,0.9499666666666665,0.15339111328125,0.0005,0.988,0.03142928686305339
23,0.9486666666666668,0.15917268637567758,0.0005,0.984,0.04860072993309739
24,0.9494666666666666,0.15409841552376746,0.0005,0.99,0.026694338418788276
25,0.953166666666667,0.14605918303132057,0.0005,0.988,0.041333394724263534
26,0.9555666666666671,0.13695481237024068,0.0005,0.988,0.0342758314494435
27,0.9534000000000001,0.1428410480171442,0.0005,0.988,0.04240762152345837
28,0.9509333333333327,0.14957664538174867,0.0005,0.99,0.03938818735152409
29,0.9542000000000005,0.14633743770420551,0.0005,0.982,0.06524134113052611
30,0.9543666666666668,0.13678260538727044,0.0005,0.996,0.024832739293945423
31,0.9504666666666667,0.14461088091135024,0.0005,0.976,0.04782022596201159
32,0.952366666666666,0.14733358237892388,0.0005,0.984,0.04238465567961157
33,0.9531666666666669,0.14401282124221326,0.0005,0.982,0.07845345902921892
34,0.9547333333333333,0.13558763232082127,0.0005,0.988,0.1120109779361394
35,0.9529999999999998,0.13854224115610123,0.0005,0.99,0.023276131168628353
36,0.9558,0.1349912027269602,0.0005,0.994,0.03908110461795644
37,0.9573666666666669,0.12796880062669516,0.0005,0.984,0.050526311477191256
38,0.9577333333333331,0.13437775023281573,0.0005,0.988,0.03820863332243775
39,0.9535666666666667,0.13916246313601732,0.0005,0.994,0.032312457750049074
40,0.9576666666666663,0.12498898584395647,0.00025,0.988,0.04964294823250583
