epoch,categorical_accuracy,loss,lr,val_1-shot_5-way_acc,val_loss
1,0.5959333333333331,1.7424969559907912,0.001,0.8,1.799131647348404
2,0.7806000000000001,0.7880741822719574,0.001,0.916,0.8083441239595414
3,0.8392999999999998,0.5875388079881668,0.001,0.966,0.41566169634461403
4,0.8696,0.4754809644818306,0.001,0.962,0.4453977566957474
5,0.8756000000000006,0.4603275021910667,0.001,0.98,0.3535544802248478
6,0.898133333333333,0.36332102298736574,0.001,0.972,0.41004216730594634
7,0.8993000000000002,0.35911895021796225,0.001,0.96,0.39096453815698623
8,0.9133333333333331,0.3205372020602226,0.001,0.976,0.36254307121038437
9,0.9140999999999997,0.30883633479475975,0.001,0.98,0.3415592621266842
10,0.9189333333333332,0.2952496862411499,0.001,0.972,0.3605562524497509
11,0.9189000000000002,0.2904671365022659,0.001,0.988,0.3170189434289932
12,0.9241666666666668,0.28118141561746596,0.001,0.982,0.327642752379179
13,0.9257,0.27305158726871015,0.001,0.97,0.38327124550938607
14,0.9281666666666664,0.2675127583742142,0.001,0.98,0.34225720256567
15,0.9316000000000004,0.25488965526223184,0.001,0.98,0.32729455828666687
16,0.9337999999999999,0.249003264605999,0.001,0.984,0.3389425839483738
17,0.9376666666666664,0.2304752926528454,0.001,0.978,0.3283405324816704
18,0.9382666666666669,0.23013864263892173,0.001,0.978,0.3411939811706543
19,0.9385666666666662,0.22931363843381405,0.001,0.978,0.35898922562599184
20,0.9408333333333332,0.21797959327697755,0.0005,0.992,0.310604148209095
21,0.9447666666666664,0.2055735180526972,0.0005,0.982,0.36128165915608407
22,0.9453666666666664,0.20478730514645577,0.0005,0.974,0.3807490216195583
23,0.9485666666666668,0.1960736833512783,0.0005,0.982,0.3203290179371834
24,0.9475,0.19498272247612478,0.0005,0.98,0.3531060993671417
25,0.9484666666666668,0.19165746703743936,0.0005,0.992,0.304896230250597
26,0.9513333333333336,0.18495472721755504,0.0005,0.988,0.3335439059138298
27,0.9511999999999995,0.1914451903104782,0.0005,0.976,0.34270009502768517
28,0.9505333333333335,0.18584045201539992,0.0005,0.988,0.33796054795384406
29,0.9523333333333334,0.18522846698760986,0.0005,0.984,0.31533826887607574
30,0.9521000000000004,0.1815837739408016,0.0005,0.976,0.3200415587425232
31,0.9496000000000006,0.18702123127877712,0.0005,0.982,0.3242794239521027
32,0.9522999999999995,0.17680886916816235,0.0005,0.984,0.33287819564342497
33,0.9509666666666665,0.18681276954710482,0.0005,0.976,0.34016000732779506
34,0.9537000000000002,0.17746689587831496,0.0005,0.994,0.29539832442998887
35,0.9510999999999998,0.18642793267965316,0.0005,0.982,0.33423454985022544
36,0.9544999999999999,0.17673878893256187,0.0005,0.982,0.335355241894722
37,0.9522666666666666,0.18174504324793817,0.0005,0.988,0.3110701642930508
38,0.9543666666666667,0.17511287808418274,0.0005,0.98,0.3412776418030262
39,0.9520000000000001,0.17497269183397293,0.0005,0.99,0.29995233729481696
40,0.9547666666666665,0.17488386526703834,0.00025,0.99,0.3587746970355511
